{
	"id": "c38ec07e-51ad-8429-7a35-2bc9d5f4b876",
	"name": "Soccer-Trivial",
	"description": "",
	"order": [
		"ad5b8042-f091-0502-0f08-12669d73e99d",
		"3cd42660-96e9-371b-eaf2-a8d658170772",
		"c391351e-0ac6-4811-fe4d-431325836687",
		"631a6c7f-5142-2d93-7998-d8bedda43f4f",
		"6a5b53a9-f098-f22f-844e-908aed4989b9",
		"fafa25f5-d6df-e061-088c-0b7a62fff50e",
		"ccb3a056-02d1-a52e-df80-15e854bc888b",
		"6a26defb-9159-4d43-2f2f-e098950a1067",
		"464adec0-71b6-1d57-63ec-fa2a82052041",
		"c5ae6ac9-ee7c-ef0a-e2b9-1c4dd925c8c9",
		"da8f4e5c-9ee0-f808-9cb2-a91b803b220c",
		"d2077fa7-dc2d-a2f5-71b5-624492eb9064"
	],
	"folders": [],
	"timestamp": 1463561071198,
	"owner": 0,
	"remoteLink": "",
	"public": false,
	"requests": [
		{
			"id": "3cd42660-96e9-371b-eaf2-a8d658170772",
			"headers": "",
			"url": "http://localhost/soccertrivial/index.php/api/kannel/request/?msisdn=09036671876&time=12345&shortcode=34567&message=begiN&test=true",
			"preRequestScript": null,
			"pathVariables": {},
			"method": "GET",
			"data": null,
			"dataMode": "params",
			"version": 2,
			"tests": null,
			"currentHelper": "normal",
			"helperAttributes": {},
			"time": 1464277469345,
			"name": "Segzpair-Male-Barcelona",
			"description": "",
			"collectionId": "c38ec07e-51ad-8429-7a35-2bc9d5f4b876",
			"responses": []
		},
		{
			"id": "464adec0-71b6-1d57-63ec-fa2a82052041",
			"headers": "",
			"url": "http://localhost/soccertrivial/index.php/api/question/create/",
			"preRequestScript": null,
			"pathVariables": {},
			"method": "POST",
			"data": [
				{
					"key": "question",
					"value": "What year was your coach born",
					"type": "text",
					"enabled": true
				},
				{
					"key": "club",
					"value": "57472071bba4a222e6206b91",
					"type": "text",
					"enabled": true
				},
				{
					"key": "level",
					"value": "2",
					"type": "text",
					"enabled": true
				},
				{
					"key": "options",
					"value": "1992,1950,1930",
					"type": "text",
					"enabled": true
				},
				{
					"key": "answer",
					"value": "0",
					"type": "text",
					"enabled": true
				}
			],
			"dataMode": "params",
			"version": 2,
			"tests": null,
			"currentHelper": "normal",
			"helperAttributes": {},
			"time": 1464280035878,
			"name": "What year was your coach born",
			"description": "",
			"collectionId": "c38ec07e-51ad-8429-7a35-2bc9d5f4b876",
			"responses": []
		},
		{
			"id": "631a6c7f-5142-2d93-7998-d8bedda43f4f",
			"headers": "",
			"url": "http://localhost/soccertrivial/index.php/api/kannel/request/?msisdn=09087654321&time=965432&shortcode=320045&message=Loveth,Barcelona,Female&test=true",
			"preRequestScript": null,
			"pathVariables": {},
			"method": "GET",
			"data": null,
			"dataMode": "params",
			"version": 2,
			"tests": null,
			"currentHelper": "normal",
			"helperAttributes": {},
			"time": 1463996480601,
			"name": "Loveth-Female-Request",
			"description": "",
			"collectionId": "c38ec07e-51ad-8429-7a35-2bc9d5f4b876",
			"responses": []
		},
		{
			"id": "6a26defb-9159-4d43-2f2f-e098950a1067",
			"headers": "",
			"url": "http://localhost/soccertrivial/index.php/api/question/create/",
			"preRequestScript": null,
			"pathVariables": {},
			"method": "POST",
			"data": [
				{
					"key": "question",
					"value": "Who is Chelsea?",
					"type": "text",
					"enabled": true
				},
				{
					"key": "club",
					"value": "574853bfbba4a25321369321",
					"type": "text",
					"enabled": true
				},
				{
					"key": "level",
					"value": "1",
					"type": "text",
					"enabled": true
				},
				{
					"key": "options",
					"value": "Nigeria,Ghana,London",
					"type": "text",
					"enabled": true
				},
				{
					"key": "answer",
					"value": "2",
					"type": "text",
					"enabled": true
				}
			],
			"dataMode": "params",
			"version": 2,
			"tests": null,
			"currentHelper": "normal",
			"helperAttributes": {},
			"time": 1464358285396,
			"name": "Where is Chelsea",
			"description": "",
			"collectionId": "c38ec07e-51ad-8429-7a35-2bc9d5f4b876",
			"responses": []
		},
		{
			"id": "6a5b53a9-f098-f22f-844e-908aed4989b9",
			"headers": "",
			"url": "http://localhost/soccertrivial/index.php/api/club/create/",
			"preRequestScript": null,
			"pathVariables": {},
			"method": "POST",
			"data": [
				{
					"key": "name",
					"value": "Barcelona",
					"type": "text",
					"enabled": true
				},
				{
					"key": "abbrev",
					"value": "FCB",
					"type": "text",
					"enabled": true
				},
				{
					"key": "league",
					"value": "Spanish League",
					"type": "text",
					"enabled": true
				},
				{
					"key": "keywords",
					"value": "baca,barcelona,fcb,FCB,BACA,Barcelona,barcelona",
					"type": "text",
					"enabled": true
				}
			],
			"dataMode": "params",
			"version": 2,
			"tests": null,
			"currentHelper": "normal",
			"helperAttributes": {},
			"time": 1464107211520,
			"name": "Barcelona",
			"description": "",
			"collectionId": "c38ec07e-51ad-8429-7a35-2bc9d5f4b876",
			"responses": []
		},
		{
			"id": "ad5b8042-f091-0502-0f08-12669d73e99d",
			"headers": "",
			"url": "http://localhost/soccertrivial/index.php/api/kannel/request/?msisdn=07060514642&time=986789378923&shortcode=320045&message=Hello",
			"preRequestScript": null,
			"pathVariables": {},
			"method": "GET",
			"data": null,
			"dataMode": "params",
			"version": 2,
			"tests": null,
			"currentHelper": "normal",
			"helperAttributes": {},
			"time": 1463993971799,
			"name": "Kannel-Request",
			"description": "",
			"collectionId": "c38ec07e-51ad-8429-7a35-2bc9d5f4b876",
			"responses": []
		},
		{
			"id": "c391351e-0ac6-4811-fe4d-431325836687",
			"headers": "",
			"url": "http://localhost/soccertrivial/index.php/api/kannel/request/?msisdn=08065234156&time=09078965432&shortcode=320045&message=Lara,ManU,Female&test=true",
			"preRequestScript": null,
			"pathVariables": {},
			"method": "GET",
			"data": null,
			"dataMode": "params",
			"version": 2,
			"tests": null,
			"currentHelper": "normal",
			"helperAttributes": {},
			"time": 1463993541237,
			"name": "Lara-Male-Request",
			"description": "",
			"collectionId": "c38ec07e-51ad-8429-7a35-2bc9d5f4b876",
			"responses": []
		},
		{
			"id": "c5ae6ac9-ee7c-ef0a-e2b9-1c4dd925c8c9",
			"headers": "",
			"url": "http://localhost/soccertrivial/index.php/api/club/create/",
			"preRequestScript": null,
			"pathVariables": {},
			"method": "POST",
			"data": [
				{
					"key": "name",
					"value": "Arsenal",
					"type": "text",
					"enabled": true
				},
				{
					"key": "abbrev",
					"value": "AFC",
					"type": "text",
					"enabled": true
				},
				{
					"key": "league",
					"value": "English League",
					"type": "text",
					"enabled": true
				},
				{
					"key": "keywords",
					"value": "Arsenal,AFC",
					"type": "text",
					"enabled": true
				}
			],
			"dataMode": "params",
			"version": 2,
			"tests": null,
			"currentHelper": "normal",
			"helperAttributes": {},
			"time": 1464361775973,
			"name": "Chelsea",
			"description": "",
			"collectionId": "c38ec07e-51ad-8429-7a35-2bc9d5f4b876",
			"responses": []
		},
		{
			"id": "ccb3a056-02d1-a52e-df80-15e854bc888b",
			"headers": "",
			"url": "http://localhost/soccertrivial/index.php/api/club/create/",
			"preRequestScript": null,
			"pathVariables": {},
			"method": "POST",
			"data": [
				{
					"key": "name",
					"value": "Arsenal",
					"type": "text",
					"enabled": true
				},
				{
					"key": "abbrev",
					"value": "AFC",
					"type": "text",
					"enabled": true
				},
				{
					"key": "league",
					"value": "English  League",
					"type": "text",
					"enabled": true
				},
				{
					"key": "keywords",
					"value": "Arsenal,AFC",
					"type": "text",
					"enabled": true
				}
			],
			"dataMode": "params",
			"version": 2,
			"tests": null,
			"currentHelper": "normal",
			"helperAttributes": {},
			"time": 1464321309015,
			"name": "Arsenal",
			"description": "",
			"collectionId": "c38ec07e-51ad-8429-7a35-2bc9d5f4b876",
			"responses": []
		},
		{
			"id": "d2077fa7-dc2d-a2f5-71b5-624492eb9064",
			"headers": "",
			"url": "http://localhost/soccertrivial/index.php/api/question/create/",
			"pathVariables": {},
			"preRequestScript": null,
			"method": "POST",
			"collectionId": "c38ec07e-51ad-8429-7a35-2bc9d5f4b876",
			"data": [
				{
					"key": "question",
					"value": "What is Chelsea's Jersey color",
					"type": "text",
					"enabled": true
				},
				{
					"key": "club",
					"value": "5746f4cbbba4a217fc1c0841",
					"type": "text",
					"enabled": true
				},
				{
					"key": "level",
					"value": "1",
					"type": "text",
					"enabled": true
				},
				{
					"key": "options",
					"value": "Nigeria,Ghana,London",
					"type": "text",
					"enabled": true
				},
				{
					"key": "answer",
					"value": "2",
					"type": "text",
					"enabled": true
				}
			],
			"dataMode": "params",
			"name": "What is Chelsea's Jersey color",
			"description": "",
			"descriptionFormat": "html",
			"time": 1464321654438,
			"version": 2,
			"responses": [],
			"tests": null,
			"currentHelper": "normal",
			"helperAttributes": {}
		},
		{
			"id": "da8f4e5c-9ee0-f808-9cb2-a91b803b220c",
			"headers": "",
			"url": "http://localhost/soccertrivial/index.php/api/kannel/request/?msisdn=6876765308036671876&time=12345&shortcode=34567&message=Lekan,Chelsea,Male&test=true",
			"preRequestScript": null,
			"pathVariables": {},
			"method": "GET",
			"data": null,
			"dataMode": "params",
			"version": 2,
			"tests": null,
			"currentHelper": "normal",
			"helperAttributes": {},
			"time": 1464325646155,
			"name": "Lekan-Male-Chelsea",
			"description": "",
			"collectionId": "c38ec07e-51ad-8429-7a35-2bc9d5f4b876",
			"responses": []
		},
		{
			"id": "fafa25f5-d6df-e061-088c-0b7a62fff50e",
			"headers": "",
			"url": "http://localhost/soccertrivial/index.php/api/kannel/request/?msisdn=09036671876&time=12345&shortcode=320045&message=Lekan,Arsenal,Male&test=true",
			"preRequestScript": null,
			"pathVariables": {},
			"method": "GET",
			"data": null,
			"dataMode": "params",
			"version": 2,
			"tests": null,
			"currentHelper": "normal",
			"helperAttributes": {},
			"time": 1464365390359,
			"name": "Olodo-Joy-Female-Request",
			"description": "",
			"collectionId": "c38ec07e-51ad-8429-7a35-2bc9d5f4b876",
			"responses": []
		}
	]
}